IODS course project
…
making subset of data.frame, that includes only the studied variables:

alc_study<-subset(alc, select = c(high_use, alc_use, sex, failures, famrel, absences))

alc %>% group_by(sex) %>% summarise(count = n())

## # A tibble: 2 x 2
##   sex   count
##   <chr> <int>
## 1 F       195
## 2 M       175

alc %>% group_by(absences) %>% summarise(count = n())

## # A tibble: 26 x 2
##    absences count
##       <int> <int>
##  1        0    63
##  2        1    50
##  3        2    56
##  4        3    38
##  5        4    35
##  6        5    22
##  7        6    21
##  8        7    12
##  9        8    20
## 10        9    11
## # ... with 16 more rows
…
